<svg width="22" height="22" viewBox="0 0 22 22" fill="none" xmlns="http://www.w3.org/2000/svg">
<path d="M21 6.55556V15.4444C21 18.5127 18.5127 21 15.4444 21H6.55556C3.48731 21 1 18.5127 1 15.4444V6.55556C1 3.48731 3.48731 1 6.55556 1H15.4444C18.5127 1 21 3.48731 21 6.55556Z" stroke="#1E272E" stroke-width="1.5" stroke-linecap="round" stroke-linejoin="round"/>
<path d="M8.77669 11C6.93575 11 5.44336 12.4923 5.44336 14.3333C5.44336 16.1743 6.93575 17.6667 8.77669 17.6667C10.6177 17.6667 12.11 16.1743 12.11 14.3333V4.33334C12.4804 5.44445 13.8878 7.66667 16.5545 7.66667" stroke="#1E272E" stroke-width="1.5" stroke-linecap="round" stroke-linejoin="round"/>
</svg>
