<svg width="32" height="26" viewBox="0 0 32 26" fill="none" xmlns="http://www.w3.org/2000/svg">
<path fill-rule="evenodd" clip-rule="evenodd" d="M13.028 6.64402C12.8092 6.51883 12.5477 6.52971 12.3378 6.67276C12.128 6.81581 12 7.07039 12 7.34475V17.8553C12 18.1296 12.128 18.3842 12.3378 18.5272C12.5477 18.6703 12.8092 18.6812 13.028 18.556L17.6162 15.931L22.205 13.3004C22.4403 13.1655 22.5882 12.8952 22.5882 12.6C22.5882 12.3048 22.4403 12.0345 22.205 11.8996L17.6167 9.26931L13.028 6.64402ZM13.4118 8.63361L16.972 10.6705L20.3379 12.6L16.972 14.5295L13.4118 16.5664V8.63361Z" fill="#1E272E"/>
<path fill-rule="evenodd" clip-rule="evenodd" d="M5.88235 0C2.63362 0 0 2.93813 0 6.5625V18.6375C0 22.2619 2.63362 25.2 5.88235 25.2H26.1176C29.3664 25.2 32 22.2619 32 18.6375V6.5625C32 2.93813 29.3664 0 26.1176 0H5.88235ZM1.41176 6.5625C1.41176 3.80798 3.41332 1.575 5.88235 1.575H26.1176C28.5867 1.575 30.5882 3.80798 30.5882 6.5625V18.6375C30.5882 21.392 28.5867 23.625 26.1176 23.625H5.88235C3.41332 23.625 1.41176 21.392 1.41176 18.6375V6.5625Z" fill="#1E272E"/>
</svg>
