<svg width="28" height="26" viewBox="0 0 28 26" fill="none" xmlns="http://www.w3.org/2000/svg">
<path fill-rule="evenodd" clip-rule="evenodd" d="M5.48649 0C2.45638 0 0 2.63184 0 5.87838V20.0676C0 23.3141 2.45638 25.9459 5.48649 25.9459H22.5135C25.5436 25.9459 28 23.3141 28 20.0676V5.87838C28 2.63184 25.5436 0 22.5135 0H5.48649ZM3.17704 2.41426C3.82787 1.91529 4.62517 1.62162 5.48649 1.62162H22.5135C23.3725 1.62162 24.1678 1.9137 24.8177 2.41023L16.2832 12.9611C15.0762 14.4533 12.9153 14.4533 11.7082 12.9611L3.17704 2.41426ZM2.13136 3.59755C1.74013 4.25683 1.51351 5.03925 1.51351 5.87838V20.0676C1.51351 22.4185 3.29227 24.3243 5.48649 24.3243H22.5135C24.7077 24.3243 26.4865 22.4185 26.4865 20.0676V5.87838C26.4865 5.03667 26.2585 4.25202 25.865 3.59147L17.427 14.0231C15.6164 16.2614 12.375 16.2614 10.5645 14.0231L2.13136 3.59755Z" fill="#1E272E"/>
</svg>
