<svg width="30" height="30" viewBox="0 0 30 30" fill="none" xmlns="http://www.w3.org/2000/svg">
<path d="M15 0C6.72896 0 0 6.72896 0 15C0 23.271 6.72896 30 15 30C23.271 30 30 23.271 30 15C30 6.72896 23.271 0 15 0ZM15 28.2838C7.67524 28.2838 1.71618 22.3247 1.71618 15C1.71618 7.67534 7.67524 1.71618 15 1.71618C22.3248 1.71618 28.2838 7.67534 28.2838 15C28.2838 22.3247 22.3248 28.2838 15 28.2838Z" fill="#1E272E"/>
<path d="M10.7097 11.5479C10.2357 11.5479 9.85156 11.932 9.85156 12.406V19.5009C9.85156 19.9748 10.2357 20.359 10.7097 20.359C11.1836 20.359 11.5677 19.9748 11.5677 19.5009V12.406C11.5677 11.932 11.1836 11.5479 10.7097 11.5479Z" fill="#1E272E"/>
<path d="M10.7097 7.54319C10.4837 7.54319 10.2625 7.63472 10.1033 7.7949C9.94309 7.95412 9.85156 8.17532 9.85156 8.40128C9.85156 8.62725 9.94309 8.84835 10.1033 9.00862C10.2625 9.16784 10.4837 9.25937 10.7097 9.25937C10.9356 9.25937 11.1568 9.16784 11.316 9.00862C11.4762 8.84835 11.5677 8.62725 11.5677 8.40128C11.5677 8.17532 11.4762 7.95412 11.316 7.7949C11.1568 7.63472 10.9356 7.54319 10.7097 7.54319Z" fill="#1E272E"/>
<path d="M18.1217 12.2153C17.2235 12.2153 16.3922 12.5048 15.7142 12.9942V12.406C15.7142 11.932 15.3301 11.5479 14.8561 11.5479C14.3822 11.5479 13.998 11.932 13.998 12.406V19.5009C13.998 19.9748 14.3822 20.359 14.8561 20.359C15.3301 20.359 15.7142 19.9748 15.7142 19.5009V16.3389C15.7142 15.0114 16.7942 13.9315 18.1217 13.9315C19.4491 13.9315 20.5291 15.0114 20.5291 16.3389V19.6916C20.5291 20.1655 20.9132 20.5497 21.3872 20.5497C21.8611 20.5497 22.2453 20.1655 22.2453 19.6916V16.3389C22.2453 14.0652 20.3954 12.2153 18.1217 12.2153Z" fill="#1E272E"/>
</svg>
