<svg width="640" height="480" viewBox="0 0 640 480" fill="none" xmlns="http://www.w3.org/2000/svg">
<path d="M31.4797 376.12C59.2797 363.72 90.8397 365.32 120 371.48C150.84 378 180.52 389.36 211.64 394.64C228.88 397.56 246.48 398.6 263.84 395.88C264.6 395.76 264.28 394.6 263.52 394.72C231.28 399.72 199.04 391.72 168.2 383C138.68 374.64 108.8 365.36 77.7597 365.6C61.6797 365.72 45.6397 368.52 30.8797 375.08C30.1597 375.4 30.7597 376.44 31.4797 376.12Z" fill="#E8E8E8"/>
<path d="M187.16 386.44C224.84 387.2 261.32 376.76 298.16 370.56C308.92 368.76 319.76 367.32 330.68 366.6C331.44 366.56 331.44 365.36 330.68 365.4C292.96 367.88 256.6 379.16 219.16 383.56C208.56 384.8 197.88 385.48 187.2 385.28C186.36 385.24 186.36 386.44 187.16 386.44Z" fill="#E8E8E8"/>
<path d="M363.279 373C376.679 370.12 390.559 369.64 404.119 371.72C416.599 373.64 428.559 377.76 440.359 382.16C451.999 386.48 463.559 391.08 475.639 394.16C488.119 397.32 500.799 398.12 513.679 398.12C528.879 398.12 544.199 397.52 559.119 400.88C559.879 401.04 560.199 399.88 559.439 399.72C533.079 393.8 505.759 399.8 479.399 393.8C454.799 388.2 432.319 375.6 407.439 371.08C392.719 368.4 377.599 368.72 362.999 371.84C362.199 372 362.519 373.16 363.279 373Z" fill="#E8E8E8"/>
<path d="M144.8 219.2C141.36 218.16 134.6 215.32 137.12 210.52C138.92 207.08 144.28 206.8 147.6 206.92C158.8 207.24 170 208.2 181.2 207.28C191.72 206.4 201.76 203.4 212 201C222.4 198.52 233.4 196.72 243.88 199.76C248.48 201.08 252.76 203.28 257.28 204.8C259.44 205.52 261.68 206.08 263.96 206.32C266.68 206.6 269.4 206.2 272.08 206.08C274.84 205.96 277.68 206.04 280.04 207.68C282.2 209.16 284 211.96 282.6 214.56C280.6 218.32 274.76 217.28 271.4 216.56C261.44 214.48 251.4 213.84 241.28 215.2C235.92 215.92 230.68 217.24 225.56 218.88C220.04 220.64 214.68 222.2 208.8 221.4C203.32 220.64 198.08 218.88 192.52 218.68C186.96 218.44 181.44 219.16 175.96 219.88C165.32 221.32 153.96 223.16 144 218C143.32 217.64 142.72 218.68 143.4 219.04C152.72 223.88 163.24 222.76 173.32 221.44C178.6 220.72 183.92 219.96 189.28 219.84C195.16 219.72 200.64 221.08 206.36 222.2C212.2 223.32 217.48 222.72 223.16 220.96C228.8 219.2 234.36 217.48 240.2 216.6C246.24 215.68 252.36 215.44 258.44 215.88C263.84 216.24 269 217.68 274.32 218.28C277.48 218.64 281.52 218.52 283.48 215.56C285.72 212.16 283.32 208.2 280.24 206.32C275.56 203.48 269.76 205.48 264.68 205.16C259.08 204.8 253.92 202.2 248.76 200.2C238.04 196.04 227.08 196.56 216 198.92C204.28 201.4 192.88 205.2 180.88 206.16C173.96 206.72 166.96 206.6 160.04 206.32C156.44 206.16 152.8 206 149.2 205.84C146.96 205.76 144.76 205.72 142.56 206.16C139.16 206.84 135.28 208.84 135.52 212.88C135.8 217.32 140.92 219.36 144.52 220.44C145.2 220.6 145.52 219.44 144.8 219.2Z" fill="#E8E8E8"/>
<path d="M440 71.64C436.56 71.16 430.92 69.92 429.92 66C428.48 60.56 436.24 58.84 440 58.16C451 56.28 462.28 58 473.36 58C495.32 57.96 516.96 53.8 538.8 52.24C549.72 51.44 560.72 51.32 571.6 52.72C574.08 53.04 576.68 53.28 579.08 54C580.08 54.28 581.2 54.76 581.96 55.48C583.8 57.28 582 58.92 580.32 59.8C576 62.08 571.08 63 566.24 63.2C556.56 63.64 546.92 61.64 537.24 62C532.72 62.16 528.28 62.92 524 64.48C519 66.32 514.36 68.92 509.32 70.64C503.48 72.64 497.32 73.64 491.12 73.64C484.84 73.64 478.64 72.68 472.44 71.96C459.88 70.52 447.28 70.56 434.76 72.24C434 72.36 434 73.56 434.76 73.44C447 71.8 459.4 71.68 471.68 73.08C477.76 73.76 483.84 74.72 490 74.84C495.68 74.96 501.4 74.24 506.88 72.68C512.48 71.08 517.6 68.32 523 66.16C528.24 64.08 533.64 63.16 539.24 63.16C549.56 63.08 559.92 65.4 570.24 64.04C572.76 63.72 575.2 63.16 577.6 62.28C579.44 61.6 581.92 60.76 583.24 59.2C585.72 56.2 582.12 53.56 579.44 52.8C574.16 51.24 568.2 50.96 562.72 50.64C556.76 50.28 550.8 50.32 544.84 50.6C520.72 51.76 496.88 56.8 472.68 56.72C465.8 56.72 458.92 56.08 452.04 56.04C446.2 56 439.52 56.12 434.04 58.4C430.6 59.84 427.24 63.2 429.16 67.16C430.96 70.88 436.04 72.16 439.72 72.68C440.44 72.92 440.76 71.76 440 71.64Z" fill="#E8E8E8"/>
<path d="M53.1589 126.24C86.5189 111.76 123.079 125.28 153.839 139.8C169.519 147.2 184.959 155.12 201.319 160.96C217.359 166.68 234.039 170.64 250.959 172.92C284.919 177.52 319.679 175.48 353.079 168C388.079 160.16 421.239 145.92 455.959 137C492.079 127.72 529.839 125.72 566.679 131.68C571.159 132.4 575.599 133.24 580.039 134.2C580.799 134.36 581.119 133.2 580.359 133.04C544.599 125.44 507.439 125.08 471.599 132.2C435.759 139.32 402.039 153.88 366.879 163.36C332.759 172.56 297.119 176.28 261.879 172.96C244.359 171.32 226.999 167.92 210.199 162.64C192.839 157.2 176.559 149.28 160.199 141.44C130.639 127.24 97.2789 112.84 63.8389 121.28C59.9589 122.24 56.2389 123.56 52.5589 125.16C51.8789 125.52 52.4789 126.56 53.1589 126.24Z" fill="#E8E8E8"/>
<path d="M190.039 111.92C229.119 133.72 275.639 135.36 318.999 129.28C368.079 122.4 415.359 106.2 464.519 99.88C491.879 96.36 519.799 95.92 546.879 101.92C547.639 102.08 547.959 100.92 547.199 100.76C499.319 90.2 450.199 99.52 403.319 110.44C357.119 121.2 310.399 133.76 262.519 130.68C237.519 129.08 212.639 123.12 190.639 110.88C189.999 110.48 189.399 111.52 190.039 111.92Z" fill="#E8E8E8"/>
<path d="M73.36 37.24C106.96 29.24 142.8 32.4 174.48 46.2C190.04 52.96 204.64 61.76 219.92 69.08C235.32 76.44 251.4 81.52 268.36 83.8C287.76 86.4 307.4 85.96 326.84 84.68C327.6 84.64 327.6 83.44 326.84 83.48C309.28 84.64 291.56 85.12 274.04 83.28C256.28 81.4 239.32 76.76 223.12 69.28C207.72 62.12 193.16 53.32 177.68 46.36C162.48 39.4 146.36 34.8 129.76 32.84C110.84 30.56 91.56 31.68 73.04 36.08C72.28 36.24 72.6 37.4 73.36 37.24Z" fill="#E8E8E8"/>
<path d="M414.161 279.68C410.641 278.96 404.881 277.16 404.601 272.8C404.441 270.12 406.681 268.16 409.041 267.44C411.881 266.52 414.881 267.36 417.641 268.16C422.681 269.64 427.761 270.84 433.041 271.04C437.961 271.24 442.841 270.52 447.601 269.24C452.721 267.88 457.721 266.04 462.801 264.6C468.161 263.08 473.641 262.28 479.241 262.2C489.921 262.04 500.481 263.96 511.121 264.4C516.441 264.6 521.681 264.32 526.921 263.52C532.601 262.64 538.401 261.32 544.201 262C548.361 262.48 555.041 265.28 553.681 270.64C552.481 275.32 545.841 277.96 541.761 279.28C521.281 285.92 500.161 274.88 479.401 277.8C467.441 279.48 456.161 284.52 444.081 285.48C438.561 285.92 432.881 285.56 427.641 283.6C422.841 281.76 418.521 277.76 413.041 278.72C412.281 278.84 412.601 280 413.361 279.88C416.641 279.32 419.521 280.88 422.281 282.4C424.521 283.6 426.761 284.72 429.201 285.44C434.201 286.96 439.561 287.16 444.761 286.68C456.201 285.6 466.961 281.08 478.281 279.24C490.761 277.24 503.041 280.12 515.361 281.76C525.401 283.08 536.161 283.4 545.601 279.2C549.201 277.6 554.001 275.04 554.921 270.8C555.761 267 552.841 263.96 549.681 262.4C545.001 260.12 539.361 260.56 534.401 261.24C528.361 262.04 522.481 263.32 516.361 263.4C504.441 263.6 492.681 261.16 480.801 261.12C475.121 261.12 469.481 261.76 463.961 263.2C458.481 264.64 453.161 266.64 447.721 268.12C441.001 269.92 434.241 270.48 427.361 269.4C423.921 268.84 420.681 267.88 417.361 266.92C414.881 266.2 412.201 265.6 409.601 266.16C405.721 267 402.201 270.68 403.921 274.8C405.481 278.56 410.241 280.2 413.921 280.96C414.561 281 414.881 279.84 414.161 279.68Z" fill="#E8E8E8"/>
<path d="M234.68 437.64C249.64 434.04 264.28 429.12 278.4 423C285.72 419.8 292.88 416.16 300.68 414.24C308.16 412.36 315.92 411.8 323.64 412C332.56 412.2 341.4 413.4 350.2 414.8C350.96 414.92 351.28 413.76 350.52 413.64C335.52 411.28 320.08 409.36 305 412.08C297.24 413.48 290.12 416.44 283 419.68C275.52 423.08 267.96 426.16 260.2 428.88C251.72 431.84 243.12 434.4 234.36 436.48C233.6 436.64 233.92 437.8 234.68 437.64Z" fill="#161616"/>
<path d="M329.2 412.44C335.92 412.28 342.56 411.32 349.04 409.44C355.64 407.56 362.16 404.92 369.16 405.6C372.72 405.92 376.2 406.92 379.64 407.8C383.24 408.72 386.8 409.64 390.4 410.56C397.32 412.32 404.2 414.08 411.12 415.84C411.88 416.04 412.2 414.88 411.44 414.68C404.28 412.84 397.12 411.04 389.96 409.2C383.4 407.52 376.68 405.28 369.96 404.48C363.36 403.72 357.12 405.76 350.88 407.68C343.8 409.84 336.6 411.08 329.24 411.28C328.44 411.24 328.44 412.44 329.2 412.44Z" fill="#161616"/>
<path d="M399.24 418.64C414.96 415.16 431.48 412.16 447.44 415.84C455.36 417.68 462.8 421.2 470.2 424.44C477.96 427.88 485.76 431.28 493.52 434.72C494.24 435.04 494.84 434 494.12 433.68C481.96 428.32 469.92 422.52 457.52 417.76C445.52 413.16 433.04 412.24 420.32 413.68C413.12 414.52 405.96 415.92 398.88 417.52C398.16 417.64 398.48 418.8 399.24 418.64Z" fill="#161616"/>
<path d="M257.12 451.52C261.24 450.8 265.4 450.08 269.52 449.36C273.64 448.64 277.8 447.72 281.96 447.28C285.8 446.88 289.72 447.56 293.52 447.92C297.72 448.36 301.96 448.76 306.16 449.2C306.92 449.28 306.92 448.08 306.16 448C301.96 447.56 297.72 447.16 293.52 446.72C289.44 446.32 285.32 445.64 281.2 446.16C273.04 447.16 264.92 448.96 256.8 450.36C256.04 450.52 256.36 451.68 257.12 451.52Z" fill="#161616"/>
<path d="M146.642 271.12C149.381 271.12 151.602 268.899 151.602 266.16C151.602 263.421 149.381 261.2 146.642 261.2C143.902 261.2 141.682 263.421 141.682 266.16C141.682 268.899 143.902 271.12 146.642 271.12Z" fill="#FF793F"/>
<path d="M160.041 282C161.477 282 162.641 280.836 162.641 279.4C162.641 277.964 161.477 276.8 160.041 276.8C158.605 276.8 157.441 277.964 157.441 279.4C157.441 280.836 158.605 282 160.041 282Z" fill="#FF793F"/>
<path d="M439.001 28.04C442.381 28.04 445.121 25.3 445.121 21.92C445.121 18.54 442.381 15.8 439.001 15.8C435.621 15.8 432.881 18.54 432.881 21.92C432.881 25.3 435.621 28.04 439.001 28.04Z" fill="#FF793F"/>
<path d="M453.242 34.96C455.164 34.96 456.722 33.402 456.722 31.48C456.722 29.558 455.164 28 453.242 28C451.32 28 449.762 29.558 449.762 31.48C449.762 33.402 451.32 34.96 453.242 34.96Z" fill="#FF793F"/>
<path d="M450.921 33.52C454.124 33.52 456.721 30.9233 456.721 27.72C456.721 24.5167 454.124 21.92 450.921 21.92C447.718 21.92 445.121 24.5167 445.121 27.72C445.121 30.9233 447.718 33.52 450.921 33.52Z" fill="#52599A"/>
<path d="M437.041 332C441.371 332 444.881 328.49 444.881 324.16C444.881 319.83 441.371 316.32 437.041 316.32C432.711 316.32 429.201 319.83 429.201 324.16C429.201 328.49 432.711 332 437.041 332Z" fill="#52599A"/>
<path d="M152.4 31.92C155.162 31.92 157.4 29.6814 157.4 26.92C157.4 24.1586 155.162 21.92 152.4 21.92C149.639 21.92 147.4 24.1586 147.4 26.92C147.4 29.6814 149.639 31.92 152.4 31.92Z" fill="#52599A"/>
<path d="M231.52 373.84C234.9 373.84 237.64 371.1 237.64 367.72C237.64 364.34 234.9 361.6 231.52 361.6C228.14 361.6 225.4 364.34 225.4 367.72C225.4 371.1 228.14 373.84 231.52 373.84Z" fill="#52599A"/>
<path d="M275.681 258.72C274.841 258.36 275.801 256.88 276.241 256.68C276.761 256.44 277.801 256.76 278.361 256.92C279.241 257.2 280.001 257.68 280.881 257.92C281.841 258.2 283.001 258.28 283.921 257.84C287.121 256.2 283.321 250.68 288.001 250.68C290.561 250.68 292.721 254.48 294.841 251.64C295.601 250.64 295.921 249.36 296.321 248.16C296.641 247.12 296.921 246.04 297.641 245.2C298.481 244.24 301.041 243.28 301.321 245.36C301.401 246.12 302.641 246.12 302.521 245.36C302.321 243.92 301.281 242.96 299.801 242.88C298.041 242.76 296.761 244.08 296.041 245.52C295.521 246.52 295.281 247.64 294.921 248.72C294.681 249.48 294.361 250.8 293.681 251.28C292.961 251.76 292.401 251.24 291.801 250.88C290.241 249.84 288.361 249.04 286.481 249.72C284.761 250.36 284.081 251.84 284.161 253.6C284.161 254.12 284.321 254.76 284.281 255.28C284.001 257.12 282.761 257.2 281.481 256.92C280.201 256.64 279.121 255.84 277.801 255.6C276.401 255.32 275.001 255.68 274.361 257.08C273.841 258.28 274.161 259.48 275.361 259.96C276.081 260.16 276.401 259 275.681 258.72Z" fill="#52599A"/>
<path d="M296.321 260.64C295.721 259.72 295.721 258.56 296.361 257.64C297.281 256.32 298.561 256.52 299.961 256.72C301.001 256.88 302.281 257.08 303.041 256.16C303.561 255.56 303.481 254.84 303.681 254.16C303.961 253.16 304.601 252.28 305.441 251.68C307.201 250.4 309.681 250.2 311.441 251.56C311.881 251.88 312.401 251.68 312.481 251.12C312.961 247.24 316.801 244.36 320.641 245.04C321.401 245.16 321.721 244 320.961 243.88C316.281 243.08 311.841 246.44 311.281 251.12C311.641 250.96 311.961 250.84 312.321 250.68C310.681 249.4 308.601 249.08 306.641 249.76C304.401 250.52 303.361 252 302.521 254.08C302.121 255.12 301.641 255.76 300.481 255.6C299.841 255.52 299.241 255.36 298.601 255.32C297.681 255.28 296.881 255.52 296.161 256.12C294.641 257.4 294.241 259.6 295.321 261.28C295.721 261.92 296.761 261.32 296.321 260.64Z" fill="#52599A"/>
<path d="M316.562 41.72C315.882 41.08 316.082 40.68 317.122 40.48C317.562 39.88 318.042 39.76 318.562 40.16C319.282 40.32 319.762 40.96 320.282 41.44C320.922 42 321.482 42.64 322.202 43.08C323.202 43.64 324.442 43.88 325.482 43.36C326.762 42.72 326.802 41.44 327.242 40.24C328.442 37.04 332.522 36.72 334.442 39.44C334.682 39.76 335.282 39.88 335.482 39.44C336.242 37.64 337.202 35.6 338.922 34.52C340.642 33.44 343.522 33.56 344.282 35.8C344.522 36.52 345.682 36.2 345.442 35.48C344.682 33.32 342.482 32.36 340.282 32.72C337.242 33.24 335.562 36.28 334.442 38.84C334.802 38.84 335.122 38.84 335.482 38.84C334.082 36.84 331.682 35.76 329.282 36.64C328.282 37 327.362 37.72 326.762 38.64C326.442 39.12 326.242 39.64 326.042 40.2C325.922 40.56 325.922 41 325.722 41.32C325.202 42.2 323.762 42.56 322.842 42.04C320.882 40.96 318.962 37.52 316.242 38.92C314.722 39.68 314.522 41.84 315.962 42.76C316.642 43.16 317.242 42.12 316.562 41.72Z" fill="#FF793F"/>
<path d="M342.242 41.4C341.962 37.4 347.082 38.72 349.122 39.72C350.162 40.24 351.442 41.2 352.562 40.32C352.922 40.04 353.082 39.64 353.242 39.24C353.842 37.92 354.242 36.96 355.842 36.48C358.322 35.76 360.722 37.32 362.722 38.6C363.362 39 363.962 37.96 363.322 37.56C361.202 36.24 358.802 34.76 356.202 35.2C355.362 35.32 354.522 35.64 353.842 36.16C352.802 36.92 352.602 38.24 351.562 38.88C350.562 39.48 350.162 38.88 349.162 38.4C348.642 38.16 348.122 37.92 347.562 37.72C346.522 37.36 345.402 37.2 344.322 37.44C342.442 37.88 340.922 39.4 341.042 41.4C341.082 42.16 342.282 42.16 342.242 41.4Z" fill="#FF793F"/>
<path d="M458.001 207.08C455.361 201.28 465.361 198.72 466.041 204.8C466.281 206.84 465.161 209 463.081 209.56C460.761 210.16 458.281 208.6 457.641 206.36C457.441 205.6 456.281 205.92 456.481 206.68C457.281 209.56 460.441 211.48 463.401 210.72C466.321 209.96 467.761 206.72 467.081 203.92C466.361 200.96 463.281 199.52 460.441 200.28C457.121 201.16 455.561 204.64 456.961 207.76C457.281 208.4 458.321 207.76 458.001 207.08Z" fill="#FF793F"/>
<path d="M465.442 211.68C463.282 211.48 462.482 208.6 463.962 207.16C465.202 205.92 467.322 206 468.642 207.04C470.002 208.12 471.322 211.28 469.802 212.8C467.802 214.8 465.362 211.56 464.402 210.12C463.962 209.48 462.922 210.08 463.362 210.72C464.762 212.88 467.962 216.28 470.642 213.64C472.762 211.56 471.242 207.36 469.162 205.88C467.042 204.36 463.562 204.88 462.362 207.36C461.162 209.76 462.922 212.64 465.482 212.88C466.202 212.96 466.202 211.76 465.442 211.68Z" fill="#FF793F"/>
<path d="M102.081 161.4C103.681 161.32 104.521 160.24 105.641 159.24C108.281 156.88 111.321 159.12 113.001 161.44C114.601 163.64 116.921 165.2 118.961 162.56C119.921 161.32 120.401 159.48 121.721 158.6C124.401 156.8 126.681 160.36 128.361 161.92C130.281 163.68 134.241 164.48 135.121 161.2C135.321 160.44 134.161 160.12 133.961 160.88C133.521 162.6 131.441 162.56 130.201 161.84C129.241 161.28 128.561 160.4 127.801 159.64C126.681 158.44 125.441 157.28 123.761 156.96C121.001 156.48 119.761 158.96 118.521 160.96C118.201 161.52 117.801 162.28 117.201 162.6C115.761 163.36 114.721 161.84 113.961 160.84C113.001 159.48 111.921 158.32 110.361 157.6C109.081 157 107.561 156.8 106.241 157.36C104.721 158 103.761 160.16 102.041 160.24C101.321 160.24 101.321 161.44 102.081 161.4Z" fill="#FF793F"/>
<path d="M130.04 153.16C131.72 155.16 134.72 157.84 137.36 155.64C138 155.08 138.36 154.28 139.04 153.72C140.04 152.96 141.36 152.8 142.52 153.16C145.04 153.84 146.52 156.24 147.84 158.28C148.08 158.64 148.68 158.72 148.88 158.28C150.6 154.52 155.2 153.6 158.8 155.04C159.52 155.32 159.84 154.16 159.12 153.88C155.08 152.24 149.76 153.44 147.84 157.64C148.2 157.64 148.52 157.64 148.88 157.64C147.08 154.84 144.8 151.64 141.04 151.76C139.72 151.8 138.52 152.36 137.64 153.32C136.6 154.52 135.72 155.48 134 154.96C132.68 154.56 131.72 153.32 130.84 152.28C130.4 151.72 129.56 152.56 130.04 153.16Z" fill="#FF793F"/>
<path d="M202.08 195C201.56 193.96 200.96 192.88 200.48 191.8C199.96 190.68 200.2 190.24 200.88 189.28C201.76 188.04 203.12 186.92 204.68 187.76C205.8 188.36 206.52 189.72 206.84 190.88C207.4 192.84 206.92 195.64 204.64 196.28C202.76 196.8 200.32 195.64 200.4 193.48C200.4 192.72 199.2 192.72 199.2 193.48C199.12 196.16 201.8 197.84 204.28 197.56C207.32 197.2 208.6 194 208.16 191.28C207.72 188.64 205.28 185.28 202.24 186.52C200.76 187.12 199.64 188.68 198.96 190.08C198.56 190.92 198.64 190.96 199.04 191.8C199.68 193.08 200.32 194.36 200.96 195.6C201.4 196.28 202.44 195.68 202.08 195Z" fill="#52599A"/>
<path d="M206.521 202.84C205.001 201.04 202.401 197.52 204.641 195.28C206.241 193.68 209.121 194.28 210.441 195.88C211.801 197.52 212.081 200.72 209.961 201.92C208.161 202.96 205.561 201.96 205.241 199.88C205.121 199.12 203.961 199.44 204.081 200.2C204.561 202.92 207.881 204.2 210.281 203.12C213.201 201.76 213.321 197.72 211.601 195.36C209.961 193.08 206.361 192.28 204.121 194.16C200.881 196.84 203.681 201.24 205.721 203.64C206.161 204.28 207.001 203.44 206.521 202.84Z" fill="#FF793F"/>
<path d="M443.041 121.88C443.081 118.36 447.921 119.4 450.001 119.64C451.801 119.84 453.441 119.6 455.041 118.72C456.801 117.8 458.241 116.36 459.961 115.36C461.081 114.68 462.441 114.08 463.761 114.08C465.161 114.12 466.041 114.96 467.281 115.48C470.161 116.64 472.001 113.96 473.801 112.2C477.361 108.72 482.441 110.16 486.601 111.6C487.321 111.84 487.641 110.68 486.921 110.44C483.201 109.16 478.481 107.76 474.801 109.88C473.041 110.88 472.001 112.72 470.401 113.88C468.121 115.52 466.201 112.92 463.801 112.88C458.641 112.8 455.921 118.76 450.721 118.48C448.481 118.36 446.321 117.52 444.161 118.52C442.761 119.16 441.881 120.28 441.841 121.84C441.801 122.64 443.001 122.64 443.041 121.88Z" fill="#52599A"/>
<path d="M472.962 120.52C475.522 116.88 480.322 115.12 484.642 116.36C486.522 116.92 488.282 118.44 490.362 118.32C492.082 118.2 493.002 116.8 494.162 115.72C496.042 114 498.482 112.6 501.122 112.68C502.722 112.72 503.962 113.32 505.202 114.36C505.602 114.72 505.922 115.04 506.482 115.2C507.282 115.4 508.002 115.04 508.722 114.72C509.962 114.16 511.242 113.68 512.562 113.32C515.282 112.64 518.042 112.52 520.802 112.88C521.562 112.96 521.562 111.76 520.802 111.68C518.162 111.32 515.522 111.4 512.922 112C511.762 112.28 510.602 112.64 509.482 113.08C508.602 113.44 508.162 113.68 507.162 113.68C506.082 113.68 506.162 113.52 505.442 112.96C502.042 110.36 497.482 111.56 494.402 114C493.562 114.64 492.882 115.52 492.082 116.16C490.162 117.68 488.642 116.72 486.682 115.84C485.002 115.08 483.242 114.72 481.402 114.8C477.602 114.96 474.162 116.84 472.002 119.92C471.482 120.56 472.522 121.16 472.962 120.52Z" fill="#52599A"/>
<path d="M385.961 388.8C386.721 393.6 387.481 398.44 388.201 403.24C372.401 408.36 364.641 411.6 364.961 412.96C365.361 414.64 378.001 413.4 402.881 409.36C401.441 401.76 400.041 394.16 398.601 386.56C394.361 387.28 390.161 388.04 385.961 388.8Z" fill="black"/>
<path d="M351.962 228.08C351.682 233.52 351.282 241.28 350.922 250.68C350.562 260.64 350.362 265.84 350.402 272.24C350.402 275 350.522 286.24 351.962 300.72C353.162 312.92 355.042 331.16 361.722 353.6C364.362 362.48 368.442 374.4 374.802 388C377.722 388.44 381.162 388.68 385.082 388.52C392.442 388.16 398.402 386.36 402.522 384.68C401.322 380.76 399.642 375.2 397.882 368.52C395.522 359.48 388.722 332.24 386.082 295.64C384.762 277.24 384.282 254.28 386.602 227.88C375.082 227.92 363.522 228 351.962 228.08Z" fill="white"/>
<path opacity="0.09" d="M385.601 231.16C384.841 234.04 383.841 238.2 382.761 243.24C379.961 256.56 377.081 275.56 377.361 307.68C377.521 327.44 378.921 354.76 384.041 387.76C386.041 387.56 388.081 387.32 390.201 387C394.641 386.32 398.761 385.44 402.521 384.44C400.841 379 398.521 370.92 396.121 361.08C387.601 326 385.201 296.24 384.561 276.6C384.201 264.92 384.201 249.44 385.601 231.16Z" fill="#606060"/>
<path d="M385.721 229.12C381.721 269.6 384.201 310.68 393.041 350.4C395.561 361.68 398.561 372.8 402.081 383.8C402.321 384.52 403.481 384.2 403.241 383.48C390.921 344.8 384.761 304.24 385.081 263.64C385.161 252.12 385.801 240.56 386.921 229.08C387.001 228.36 385.801 228.36 385.721 229.12Z" fill="#161616"/>
<path d="M350.322 265C348.842 297.8 353.442 330.8 363.762 361.96C366.642 370.68 370.002 379.24 373.802 387.6C374.122 388.32 375.162 387.68 374.842 387C361.442 357.2 353.562 325 351.682 292.4C351.162 283.28 351.122 274.16 351.522 265C351.562 264.2 350.362 264.24 350.322 265Z" fill="#161616"/>
<path d="M374.282 387.96C375.642 389.48 378.762 389.12 380.602 389.16C383.402 389.2 386.242 388.92 389.002 388.52C392.002 388.08 395.002 387.44 397.962 386.72C399.442 386.36 402.522 386.28 403.282 384.64C403.602 383.96 402.562 383.32 402.242 384.04C401.882 384.88 399.882 385.04 399.122 385.2C398.002 385.48 396.922 385.72 395.802 386C393.682 386.48 391.602 386.92 389.482 387.24C387.282 387.6 385.082 387.84 382.882 387.92C381.202 388 376.402 388.52 375.162 387.12C374.602 386.52 373.762 387.4 374.282 387.96Z" fill="#161616"/>
<path d="M340.162 227.84C339.002 230.36 337.442 235.16 336.322 239.4C334.922 244.8 334.562 248.04 333.762 252.76C332.282 261.48 331.282 262.96 329.122 272.52C326.842 282.76 325.802 290.64 325.002 296.92C324.362 301.8 323.202 311.76 322.682 324.64C322.442 330.2 322.322 333.48 322.442 338C322.762 352.2 325.042 363.2 326.042 367.52C328.722 379.4 332.642 389.56 336.562 397.8C338.362 398.72 341.082 399.88 344.522 400.64C348.762 401.56 354.202 402.76 359.402 400.12C360.842 399.4 364.122 397.4 366.602 392.68C364.682 387.44 362.322 380 360.442 370.88C355.802 348.24 357.482 330.32 358.642 319.04C360.802 297.72 365.762 281.72 374.282 254.12C377.162 244.84 379.722 237.32 381.482 232.32C382.082 228.36 383.482 216.48 377.122 211.52C367.802 204.16 346.082 215.08 340.162 227.84Z" fill="white"/>
<path opacity="0.08" d="M375.841 249.12C373.241 253.24 369.641 259.36 366.081 267.08C361.681 276.6 355.201 293.32 351.721 326.64C349.801 344.84 348.521 370.32 351.481 401.08C352.721 401.2 358.001 401.64 362.521 398C364.841 396.12 366.041 393.96 366.641 392.6C364.681 387.2 362.161 379.28 360.241 369.48C354.561 340.92 358.121 317.96 360.761 301.96C362.921 288.6 367.121 270.16 375.841 249.12Z" fill="#606060"/>
<path d="M346.441 400.56C347.801 405.44 349.161 410.36 350.521 415.24C329.081 421.76 318.561 425.84 318.921 427.44C319.321 429.28 333.921 427.92 362.721 423.36C361.961 415.52 361.201 407.72 360.481 399.88C355.761 400.08 351.081 400.32 346.441 400.56Z" fill="black"/>
<path d="M339.721 228.32C335.481 239.04 333.321 250.4 331.041 261.68C328.641 273.48 326.321 285.28 324.641 297.2C321.521 319.28 320.561 341.88 324.841 363.88C327.121 375.72 330.961 387.24 336.601 397.88C336.961 398.56 338.001 397.96 337.641 397.28C316.241 356.6 322.721 309 331.441 265.84C333.961 253.32 336.201 240.56 340.921 228.64C341.161 227.92 340.001 227.6 339.721 228.32Z" fill="#161616"/>
<path d="M375.321 249.04C361.921 284.76 352.961 323.16 358.161 361.44C359.601 372 362.121 382.36 365.801 392.36C366.081 393.08 367.241 392.76 366.961 392.04C353.641 356.08 356.361 316.64 366.361 280.2C369.241 269.76 372.681 259.48 376.481 249.32C376.761 248.6 375.601 248.32 375.321 249.04Z" fill="#161616"/>
<path d="M336.722 397.84C342.362 400.96 348.842 402.28 355.242 401.44C360.482 400.72 366.562 398.32 367.082 392.28C367.162 391.52 365.962 391.52 365.882 392.28C365.322 398.56 357.722 400.24 352.562 400.48C347.242 400.72 342.002 399.4 337.362 396.8C336.642 396.44 336.042 397.48 336.722 397.84Z" fill="#161616"/>
<path d="M348.401 123.6C347.321 124.88 345.801 126.84 344.361 129.44C339.441 138.08 339.121 146.56 339.041 154C338.961 164.84 338.881 170.28 340.041 182.08C341.121 193.12 341.401 208.96 337.521 229.16C341.001 231.72 346.081 234.68 352.721 236.24C371.841 240.72 387.681 229.56 390.681 227.4C386.881 205.12 384.801 187.28 383.601 174.76C382.841 166.84 380.041 155.32 374.481 132.24C372.801 125.2 371.081 118.48 365.881 116.56C358.681 113.84 349.841 122.2 348.401 123.6Z" fill="#FF793F"/>
<path opacity="0.1" d="M365.682 117.12C366.322 119.72 367.242 123.64 368.162 128.48C369.362 134.72 370.962 144.16 372.082 158.2C373.242 172.68 374.562 199.84 374.962 234.96C377.682 234.16 380.962 232.96 384.442 231.04C386.762 229.76 388.762 228.4 390.442 227.12C390.162 224.04 389.642 219.36 388.802 213.72C387.722 206.64 386.642 201.72 386.122 199.28C384.842 192.96 383.402 183.52 383.242 170.4C381.602 163.44 380.362 157.84 379.522 154.12C377.202 143.56 376.522 139.68 374.762 133.28C373.002 126.84 371.162 121.72 370.002 118.64C368.562 118.08 367.122 117.6 365.682 117.12Z" fill="#606060"/>
<path d="M348.361 127.44C348.721 128.16 349.321 128.4 350.641 129.04C351.761 129.6 352.841 130.28 353.961 130.76C357.401 132.24 361.441 138.8 362.081 139.84C364.521 143.8 367.361 148.44 369.001 155.16C369.441 156.92 370.441 161.48 369.281 176.88C368.041 192.68 366.441 194.88 367.681 202.76C368.601 208.48 369.761 215.32 375.401 219.04C380.641 222.48 386.681 221.28 387.921 221.04C395.521 219.56 399.841 213.68 404.041 207.96C410.441 199.28 412.881 190.6 413.921 185.56C414.401 183.2 414.321 176.28 414.201 162.48C414.041 148.24 413.801 143.32 410.081 139.16C407.561 136.36 404.481 135.04 402.361 134.36C402.521 133.48 402.561 132.16 401.841 131.04C400.481 128.96 397.241 129 395.161 129.04C386.241 129.28 379.601 135.28 379.281 135.56C373.721 140.72 372.081 147.04 371.561 149.68C370.441 144.72 368.601 140.92 367.161 138.48C365.921 136.36 364.081 134.2 360.361 129.8C357.441 126.36 356.041 125.04 353.841 124.32C353.361 124.16 349.721 123.08 348.521 124.72C347.961 125.48 347.961 126.64 348.361 127.44Z" fill="white"/>
<path opacity="0.11" d="M348.08 125.96C348.32 125.52 351 126.52 351.28 126.64C355.24 128.16 358.76 131.32 363.28 138.64C365.6 142.4 368.52 147.72 371 154.64C372.76 152.84 374.24 151.36 375.4 150.24C375.4 150.24 379.68 146.12 386.6 142.12C387.28 141.72 388.12 141.24 388.72 141.6C389.96 142.28 388.64 145.6 389 148.68C389.28 151 390.64 154.2 395.8 157.76C395.92 158.44 395.96 159.4 395.4 160.04C394.28 161.28 391.4 160.28 389.92 159.76C387.52 158.92 382.88 156.72 377.4 150.28C376.88 152.36 376.2 155.32 375.68 158.96C375.2 162.12 373.88 172.64 376.08 186.16C376.96 191.52 378.6 198.68 381.96 206.84C383.44 207.48 385.32 208.08 387.56 208.44C392.24 209.16 396.12 208.24 398.36 207.52C397.04 208.16 395.24 209.24 393.68 211.12C391.8 213.4 391.76 215.12 390.2 217.24C389.16 218.68 387.28 220.48 383.8 221.76C382.72 221.64 381.08 221.36 379.28 220.56C373.8 218.12 371.32 212.96 370.2 210.56C368.72 207.32 366.44 200.76 368.6 178.56C369.84 165.88 371.2 161.92 369.12 154.68C367.52 149.12 364.76 144.52 363.8 142.96C362.08 140.16 359 135.16 353.4 130.56C350.76 128.32 347.84 126.48 348.08 125.96Z" fill="#606060"/>
<path d="M392.68 134.92C391.96 135.88 391.04 137.28 390.32 139.12C389.92 140.2 388.96 142.72 389.2 145.92C389.64 152.28 394.2 156.16 395.04 156.84C395.6 157.28 396.08 157.64 396.4 157.84C395.92 159.48 395.36 161.92 395.16 164.92C394.84 169.16 394.52 173.92 397 175.32C398.6 176.2 401 175.6 402.32 174.32C402.64 174 403.56 173 403.8 168.48C404.08 163.12 402.96 160.88 404.56 159.32C405.24 158.6 406.4 158.16 407.4 157.72C408.52 157.24 409.52 157 410.24 156.84C409.8 160.12 409.48 163.04 409.24 165.4C408.96 168.32 408.84 169.8 409.84 170.72C410.76 171.56 412.28 171.72 413.44 171.2C414.96 170.52 415.44 168.64 416.28 164.88C416.96 161.92 417.52 159.44 417.16 156.08C416.96 154.36 416.6 152.96 416.28 152C416.2 151.32 416 150.32 415.68 149.16C415 146.84 414.36 146.16 413.96 144.68C413.36 142.56 414.04 141.52 414.2 139.12C414.36 137.24 414.2 134.56 412.84 131.2C412.32 131.24 411.24 131.32 410.12 132.08C408.76 132.96 408.2 134.24 408 134.68C406.96 134.44 405.08 134.2 402.92 134.8C399.2 135.8 397.24 138.56 396.72 139.4C397.76 137.12 396.88 134.88 395.48 134.32C394.28 133.8 392.84 134.84 392.68 134.92Z" fill="black"/>
<path d="M397.201 147.32C397.601 146.56 399.601 144.88 400.28 146.28C400.6 146.96 401.64 146.36 401.32 145.68C400.88 144.76 399.8 144.48 398.841 144.68C397.681 144.88 396.721 145.68 396.161 146.72C395.801 147.4 396.841 148 397.201 147.32Z" fill="white"/>
<path d="M408.921 144.24C409.161 143.72 409.401 143.12 409.801 142.72C410.201 142.32 411.401 141.88 411.441 142.8C411.481 143.56 412.681 143.56 412.641 142.8C412.561 141.64 411.561 140.88 410.401 141.04C409.081 141.28 408.401 142.48 407.881 143.6C407.561 144.32 408.601 144.96 408.921 144.24Z" fill="white"/>
<path d="M409.241 148.04C409.241 148.08 409.241 148.12 409.241 148.16C409.161 148.24 409.081 148.32 409.041 148.36C408.841 148.48 408.521 148.36 408.561 148.12C408.561 148.12 408.561 148 408.601 148.04L408.481 148.16C408.761 148.16 409.041 148.16 409.321 148.16C409.281 148.12 409.281 148.12 409.241 148.08C409.281 148.12 409.281 148.12 409.281 148.12C409.241 148.08 409.281 148.08 409.281 148.16C409.321 148.4 409.201 148.56 408.881 148.68C408.761 148.64 408.681 148.64 408.561 148.6C408.401 148.52 408.441 148.28 408.481 148.16C408.521 148.12 408.481 148.12 408.441 148.2C408.481 148.16 408.481 148.16 408.441 148.2C408.161 148.4 408.041 148.72 408.241 149.04C408.401 149.28 408.801 149.44 409.081 149.24C409.361 149.04 409.641 148.76 409.681 148.36C409.681 147.92 409.361 147.52 408.921 147.52C408.481 147.52 408.161 147.8 408.121 148.24C408.081 148.56 408.281 148.84 408.481 149.04C408.721 149.28 409.081 149.24 409.321 149.04C409.841 148.64 409.961 147.8 409.361 147.4C409.081 147.24 408.721 147.2 408.441 147.36C408.081 147.56 408.041 148.04 408.121 148.4C408.161 148.72 408.561 148.88 408.841 148.8C409.161 148.68 409.281 148.36 409.241 148.04Z" fill="white"/>
<path d="M402.839 149.28C401.679 149.96 400.119 149.64 399.359 148.52C398.919 147.88 397.879 148.48 398.319 149.12C399.479 150.76 401.679 151.32 403.479 150.32C404.119 149.92 403.519 148.88 402.839 149.28Z" fill="white"/>
<path d="M401.959 151.88C401.079 152.56 400.319 153.44 399.799 154.44C399.439 155.12 400.479 155.72 400.839 155.04C401.319 154.12 401.999 153.36 402.839 152.72C403.079 152.52 403.039 152.08 402.839 151.88C402.559 151.64 402.199 151.68 401.959 151.88Z" fill="white"/>
<path d="M411.681 147.48C412.481 146.56 413.081 145.52 413.481 144.36C413.721 143.64 412.561 143.32 412.321 144.04C412.001 145 411.481 145.88 410.841 146.64C410.361 147.24 411.201 148.08 411.681 147.48Z" fill="white"/>
<path d="M411.76 149C412.72 148.8 413.84 148.56 414.6 149.36C415.12 149.92 415.96 149.08 415.44 148.52C414.36 147.36 412.8 147.56 411.4 147.88C410.68 148 411 149.16 411.76 149Z" fill="white"/>
<path d="M347.88 126.52C349.72 123.64 354.08 125.36 356.28 126.8C358.92 128.48 360.92 131 362.72 133.52C366.36 138.6 369.6 144.12 370.8 150.32C370.96 151.08 372.12 150.76 371.96 150C370.56 142.6 366.24 135.48 361.36 129.8C358.52 126.52 350.48 120.32 346.84 125.96C346.44 126.56 347.48 127.2 347.88 126.52Z" fill="#161616"/>
<path d="M350.36 129.24C359.96 134.64 365.36 144.76 368.08 155.08C368.28 155.84 369.44 155.52 369.24 154.76C366.44 144.16 360.8 133.72 350.96 128.2C350.28 127.8 349.68 128.84 350.36 129.24Z" fill="#161616"/>
<path d="M371.959 149.8C372.959 142.72 377.479 136.8 383.679 133.4C386.879 131.64 390.439 130.56 394.079 130.04C395.799 129.8 397.799 129.56 399.479 130.2C401.319 130.88 403.079 133.8 400.759 135.12C400.079 135.48 400.679 136.52 401.359 136.16C403.919 134.72 403.279 131.04 401.039 129.64C397.559 127.44 391.799 129 388.239 130.2C379.439 133.04 372.159 140.16 370.839 149.56C370.679 150.24 371.839 150.56 371.959 149.8Z" fill="#161616"/>
<path d="M374.64 151.6C376.6 149.32 379.08 147.4 381.48 145.6C383.8 143.84 386.28 142.4 389.16 141.76C389.92 141.6 389.6 140.44 388.84 140.6C385.88 141.28 383.28 142.76 380.88 144.56C378.4 146.44 375.84 148.4 373.8 150.76C373.28 151.32 374.12 152.2 374.64 151.6Z" fill="#161616"/>
<path d="M389.319 141.88C390.159 139.96 391.239 138.12 392.559 136.48C392.799 136.2 393.079 135.72 393.399 135.52C393.679 135 394.039 134.96 394.559 135.44C395.199 135.44 395.479 135.68 395.479 136.24C395.919 137.08 395.959 138.52 396.119 139.48C396.279 140.24 397.439 139.92 397.279 139.16C396.959 137.64 396.559 132.2 393.679 133.68C392.559 134.24 391.719 135.64 390.999 136.6C389.919 138.08 389.039 139.64 388.279 141.28C387.959 141.96 388.999 142.6 389.319 141.88Z" fill="#161616"/>
<path d="M397.041 139.84C399.081 137.2 403.241 133.56 406.801 135.52C407.481 135.88 408.081 134.84 407.401 134.48C403.281 132.28 398.641 135.88 396.161 139C395.721 139.6 396.561 140.44 397.041 139.84Z" fill="#161616"/>
<path d="M407.96 135.32C408.52 134.44 411.12 131.28 412.24 132.12C412.84 132.56 412.96 134.12 413.12 134.84C413.36 135.96 413.44 137.08 413.48 138.24C413.52 139 414.72 139 414.68 138.24C414.64 136.64 414.44 135.08 414.04 133.52C413.8 132.64 413.6 130.96 412.56 130.68C411.6 130.44 410.28 131.36 409.56 131.88C408.48 132.64 407.64 133.6 406.96 134.72C406.52 135.36 407.56 135.96 407.96 135.32Z" fill="#161616"/>
<path d="M376.201 149.64C378.961 152.32 381.881 154.8 385.001 157.04C388.081 159.24 391.081 160.8 394.961 160.6C395.721 160.56 395.721 159.36 394.961 159.4C391.001 159.6 388.081 157.84 385.001 155.6C382.161 153.52 379.521 151.24 377.001 148.8C376.481 148.28 375.641 149.12 376.201 149.64Z" fill="#161616"/>
<path d="M368.12 153.76C372.48 173.12 361.12 194.28 370.52 212.8C372.28 216.28 374.96 219.44 378.64 221C382.24 222.52 386.4 222.4 390.12 221.2C398.36 218.56 403.68 210.92 407.76 203.72C410.36 199.2 412.52 194.36 413.8 189.28C414.44 186.76 414.84 184.12 414.96 181.52C415.08 178.52 414.68 175.52 414.8 172.52C414.84 171.76 413.64 171.76 413.6 172.52C413.44 177.4 414.08 182.04 413.12 186.88C412.28 191.2 410.72 195.4 408.76 199.32C405.12 206.68 400.2 214.96 392.64 218.84C388.72 220.84 383.88 221.6 379.68 220.04C375.56 218.52 372.84 214.88 371.08 211C367.32 202.56 367.76 192.96 368.76 184C369.88 173.84 371.64 163.56 369.36 153.4C369.08 152.72 367.92 153 368.12 153.76Z" fill="#161616"/>
<path d="M385.919 193.8C383.679 197.72 382.199 201.96 381.559 206.44C381.439 207.2 382.599 207.52 382.719 206.76C383.359 202.36 384.759 198.24 386.959 194.4C387.359 193.76 386.319 193.16 385.919 193.8Z" fill="#161616"/>
<path d="M386.679 194.24C392.599 193.72 398.839 192.6 404.759 193.24C405.519 193.32 405.519 192.12 404.759 192.04C398.839 191.36 392.599 192.52 386.679 193.04C385.919 193.12 385.919 194.32 386.679 194.24Z" fill="#161616"/>
<path d="M382.16 207.52C385.08 209.24 388.48 209.08 391.76 209C395.2 208.88 398.64 208.48 401.64 206.68C402.32 206.28 401.68 205.24 401.04 205.64C398.2 207.36 395 207.68 391.76 207.8C388.72 207.92 385.52 208.12 382.76 206.52C382.12 206.12 381.52 207.16 382.16 207.52Z" fill="#161616"/>
<path d="M404.199 192.96C403.439 197.36 402.279 201.6 400.719 205.76C400.439 206.48 401.599 206.8 401.879 206.08C403.479 201.92 404.639 197.64 405.359 193.28C405.479 192.52 404.319 192.2 404.199 192.96Z" fill="#161616"/>
<path d="M385.599 195.88C387.559 200.2 393.119 201.28 397.399 201.32C398.159 201.32 398.159 200.12 397.399 200.12C393.559 200.04 388.399 199.16 386.639 195.24C386.319 194.56 385.279 195.2 385.599 195.88Z" fill="#161616"/>
<path d="M394.241 199.76C394.121 200.76 394.001 201.76 393.881 202.72C393.801 203.48 395.001 203.48 395.081 202.72C395.201 201.72 395.321 200.72 395.441 199.76C395.521 199 394.321 199 394.241 199.76Z" fill="#161616"/>
<path d="M396.519 199.76C396.399 200.76 396.279 201.76 396.199 202.76C396.119 203.52 397.319 203.52 397.399 202.76C397.519 201.76 397.639 200.76 397.719 199.76C397.799 199 396.599 199 396.519 199.76Z" fill="#161616"/>
<path d="M397.559 201.44C400.399 200.8 402.759 199.04 404.239 196.56C404.639 195.88 403.599 195.28 403.199 195.96C401.839 198.2 399.759 199.68 397.239 200.28C396.479 200.48 396.799 201.64 397.559 201.44Z" fill="#161616"/>
<path d="M388.799 139.72C387.599 146.8 388.919 155.24 396.159 158.48C396.839 158.8 397.479 157.76 396.759 157.44C389.999 154.4 388.839 146.6 389.959 140.04C390.079 139.28 388.919 138.96 388.799 139.72Z" fill="#161616"/>
<path d="M413.399 137.8C413.479 140.08 413.439 142.4 413.759 144.64C414.079 147.08 416.279 149.8 415.119 152.24C414.799 152.92 415.839 153.56 416.159 152.84C417.199 150.64 416.279 148.8 415.519 146.64C414.519 143.88 414.759 140.68 414.639 137.76C414.559 137 413.359 137 413.399 137.8Z" fill="#161616"/>
<path d="M399.439 157.64C401.199 156.72 403.199 157.68 403.599 159.6C403.639 159.8 403.919 159.72 403.879 159.52C403.399 157.4 401.199 156.36 399.279 157.36C399.119 157.48 399.279 157.76 399.439 157.64Z" fill="white"/>
<path d="M402.479 159.68C402.759 160 402.959 160.36 403.079 160.76C403.159 160.96 403.439 160.88 403.359 160.68C403.199 160.24 402.959 159.84 402.679 159.48C402.559 159.32 402.319 159.56 402.479 159.68Z" fill="white"/>
<path d="M410.52 156.88C410.88 155.24 411.92 153.88 413.44 153.12C413.6 153.04 413.48 152.76 413.28 152.88C411.68 153.64 410.6 155.08 410.24 156.8C410.2 157 410.48 157.08 410.52 156.88Z" fill="white"/>
<path d="M340.08 72.08C337.32 73.48 335 76.12 333.96 77.28C331.4 80.2 330.08 82.92 328.64 85.96C327.44 88.44 326.04 91.96 324.92 96.36C326.48 96.64 328.04 96.88 329.6 97.16C329.52 98.68 329.52 100.92 330.12 103.56C330.68 105.96 331.6 109.8 334.8 112.48C339.2 116.24 345.04 115.32 346.12 115.16C346.2 117.04 346.6 119.72 348.12 122.48C348.52 123.16 348.92 123.8 349.32 124.36C351.52 123.72 354.92 122.4 358.24 119.68C366.72 112.84 367.88 102.64 368.24 99.68C368.76 95.12 369.76 86.52 364.12 79.4C358.24 72.04 347.08 68.56 340.08 72.08Z" fill="white"/>
<path d="M331.881 80.4C333.001 78.72 335.161 76.24 337.601 74.52C341.521 71.76 343.281 72.92 345.281 70.48C346.721 68.72 347.641 65.84 346.561 64.48C344.841 62.32 338.721 64.92 337.921 65.28C336.161 66.04 330.361 68.48 328.041 74.64C326.121 79.8 327.401 85.44 328.281 85.56C328.521 85.6 328.681 85.2 329.961 83.24C330.561 82.24 331.241 81.32 331.881 80.4Z" fill="#52599A"/>
<path d="M340.601 68.36C340.281 69.4 339.801 71.48 341.401 75.56C344.241 82.88 350.881 89.44 354.201 88.24C354.921 87.96 355.681 87.24 357.121 87.16C357.481 87.16 358.921 87.08 360.041 87.96C361.801 89.36 361.881 92.4 360.721 94.36C360.521 94.72 359.441 96.36 357.801 96.48C356.361 96.6 355.881 95.48 354.721 95.4C351.881 95.24 349.441 101.48 349.121 102.32C348.481 103.92 346.921 108.08 348.041 113.4C348.281 114.56 348.841 117 350.561 119.52C354.281 124.92 360.521 126.24 362.841 126.72C365.121 127.2 373.801 129 380.561 123.4C381.641 122.52 385.2 119.48 386.16 114.32C387.8 105.6 380.48 99.08 380.04 98.72C379.72 94.2 378.64 87 374.84 79.12C372.44 74.12 370.201 69.52 365.121 66.04C358.441 61.52 348.721 60.24 343.641 64.16C343.121 64.64 341.401 66 340.601 68.36Z" fill="#52599A"/>
<path d="M333 111.28C332.4 111.88 330.64 113.72 330.32 116.6C329.88 120.6 332.56 123.36 333.12 123.92C336.04 126.92 340.92 128.12 344.44 126.32C344.72 126.2 347.8 124.56 347.92 122.2C347.96 121.16 347.4 120.64 346.6 118.32C346.08 116.8 345.76 115.56 345.52 114.72C344.44 115.08 342.6 115.56 340.32 115.24C336.24 114.72 333.72 112.08 333 111.28Z" fill="#52599A"/>
<path opacity="0.12" d="M341 71.88C341.04 73.12 341.2 74.96 342.04 76.92C342.6 78.24 343.16 79.04 343.6 79.68C345.28 82.24 345.84 84.64 346.72 87.32C348.12 91.48 347.88 94.96 347.6 99.28C347.36 102.88 346.56 108.36 343.96 114.72C345.04 115.04 346.6 115.68 348.28 116.8C351.36 118.88 352.76 121.36 353.64 122.52C355.44 124.88 359.44 127.36 369.08 127.2C368.12 126.24 366.76 124.8 365.28 123.04C361.8 118.96 358.76 115.4 356.96 111.08C355.92 108.6 354.32 103.52 355.56 96.16C356.68 96.72 358 96.68 359.04 96C360.12 95.28 360.8 93.84 360.44 92.52C360 91 358.16 89.96 356.28 90.44C355.88 89.44 355.24 88 354.2 86.44C352.56 84 350.84 82.48 350.2 81.92C348.16 80.16 345.2 77.16 341 71.88Z" fill="#606060"/>
<path opacity="0.14" d="M325.361 95.64C325.401 95 327.441 94.48 329.161 94.6C330.681 94.72 332.481 95.4 332.441 96C332.401 96.56 330.721 97 329.481 97.04C327.561 97.12 325.361 96.28 325.361 95.64Z" fill="#606060"/>
<path d="M330.321 80.76C328.041 85.76 326.001 90.84 324.241 96.04C324.121 96.36 324.361 96.68 324.641 96.76C326.201 97.36 327.761 97.64 329.401 97.6C330.161 97.6 330.161 96.4 329.401 96.4C327.841 96.4 326.401 96.12 324.961 95.6C325.081 95.84 325.241 96.08 325.361 96.32C327.081 91.2 329.041 86.2 331.321 81.32C331.681 80.68 330.641 80.04 330.321 80.76Z" fill="#161616"/>
<path d="M329.241 97.84C329.561 103 330.041 108.72 333.881 112.6C337.561 116.36 342.881 116.04 347.721 115.48C348.481 115.4 348.481 114.2 347.721 114.28C343.241 114.8 338.161 115.24 334.721 111.76C331.121 108.12 330.761 102.68 330.441 97.84C330.401 97.08 329.201 97.08 329.241 97.84Z" fill="#161616"/>
<path d="M345.36 115.6C345.88 118.4 346.84 121.08 348.2 123.56C348.56 124.24 349.6 123.64 349.24 122.96C347.92 120.52 347.04 118 346.52 115.28C346.4 114.52 345.24 114.84 345.36 115.6Z" fill="#161616"/>
<path d="M330.04 103.96C332 105.68 334.92 104.88 335.68 102.36C335.92 101.6 334.76 101.32 334.52 102.04C334.04 103.64 332.16 104.24 330.92 103.08C330.32 102.6 329.48 103.44 330.04 103.96Z" fill="#161616"/>
<path d="M333.72 102.32C334.36 102.48 334.84 102.84 335.24 103.32C335.44 103.56 335.88 103.52 336.08 103.32C336.32 103.08 336.28 102.72 336.08 102.48C335.56 101.84 334.84 101.36 334.04 101.16C333.32 100.96 333 102.12 333.72 102.32Z" fill="#161616"/>
<path d="M335.52 87.36C335.84 85.68 337.92 86 339.04 86.6C340 87.12 340.68 87.96 341.08 88.96C341.36 89.68 342.52 89.36 342.24 88.64C341.6 86.92 340.28 85.56 338.44 85.08C336.76 84.64 334.76 85.16 334.4 87.04C334.24 87.8 335.4 88.12 335.52 87.36Z" fill="#161616"/>
<path d="M335.482 80.28C337.282 77.28 340.801 79.6 341.521 82.12C341.721 82.88 342.881 82.56 342.681 81.8C342.161 79.96 340.881 78.24 338.921 77.76C337.162 77.36 335.362 78.12 334.442 79.64C334.042 80.36 335.082 80.96 335.482 80.28Z" fill="#161616"/>
<path d="M336.681 94.16C337.441 94.16 337.441 92.96 336.681 92.96C335.921 92.96 335.881 94.16 336.681 94.16Z" fill="#161616"/>
<path d="M338.961 92.36C339.001 92.36 339.081 92.36 339.121 92.36C339.441 92.36 339.721 92.08 339.721 91.76C339.721 91.44 339.441 91.16 339.121 91.16C339.081 91.16 339.001 91.16 338.961 91.16C338.641 91.16 338.361 91.44 338.361 91.76C338.361 92.12 338.641 92.36 338.961 92.36Z" fill="#161616"/>
<path d="M339 94.4C339 94.44 339 94.48 339 94.52C339 95.28 340.2 95.28 340.2 94.52C340.2 94.48 340.2 94.44 340.2 94.4C340.2 93.64 339 93.64 339 94.4C339 94.44 339 94.48 339 94.52C339 95.28 340.2 95.28 340.2 94.52C340.2 94.48 340.2 94.44 340.2 94.4C340.2 93.64 339 93.64 339 94.4Z" fill="#161616"/>
<path d="M356.441 88.28C357.521 86.72 359.361 87.72 360.001 89C360.521 90 360.521 91.2 360.481 92.28C360.321 95 358.041 96.92 355.401 95.24C354.761 94.8 354.161 95.84 354.801 96.28C356.361 97.32 358.361 97.44 359.921 96.24C361.521 95 361.801 92.96 361.681 91.04C361.561 89.2 360.841 87.16 358.921 86.48C357.561 86 356.201 86.52 355.401 87.68C355.001 88.28 356.041 88.88 356.441 88.28Z" fill="#161616"/>
<path d="M248.84 65.44C248 65.44 247.16 65.48 246.36 65.48C245 68.12 244.24 70.52 243.8 72.28C242.52 77.44 242.84 81.72 243.08 83.8C243.24 85.2 243.48 86.36 243.68 87.16C244.4 87.16 245.12 87.16 245.84 87.16C246.12 88.12 246.4 89.08 246.68 90.04C253.44 90 259 90 262.88 90.04C286.4 90.24 302.8 91.16 306.6 91.36C311.36 91.64 315.24 91.92 317.64 92.08C317.72 90.6 318.12 90.08 318.48 89.92C319.12 89.64 319.68 90.32 320.52 90.16C321.4 90 321.96 89.08 322.32 88.24C323.04 88.6 324.36 89.08 325.92 88.84C326.28 88.8 326.6 88.68 326.88 88.6C327.56 87.24 328.24 85.88 328.92 84.52C327.96 84.2 326.6 83.92 324.96 83.92C324.04 83.92 323.24 84.04 322.56 84.16C322.48 83.96 321.84 82.16 320.16 81.76C319.64 81.64 319.2 81.68 318.84 81.76C318.6 81.32 318.36 80.88 318.12 80.44C317.16 80.28 315.68 80.04 313.92 79.72C299.64 77.12 289.68 73.96 282.08 71.68C274.8 69.48 264.2 66.48 250.6 63.16C250.04 63.92 249.44 64.68 248.84 65.44Z" fill="white"/>
<path opacity="0.07" d="M243.2 80.96C243.56 80.88 243.96 81.8 244.4 81.68C245.12 81.52 244.96 79 245.12 77.12C245.24 75.32 245.76 72.72 247.52 69.56C248.68 70.04 250.44 70.8 252.56 71.72C260.2 75.04 265.48 77.6 267.08 78.32C277.64 83.24 289.24 85.44 292.16 86C298.8 87.28 308 88.4 319.04 87.92C318.56 89.24 318.08 90.56 317.6 91.88C315.76 91.84 313.08 91.84 309.8 91.76C295.72 91.48 285.88 91.04 280.24 90.8C272.28 90.48 260.88 90.16 246.48 90.2C246.32 89.12 246.16 88.04 246 86.96C245.08 87.12 244.16 87.28 243.24 87.44C242.64 82.44 242.8 81.04 243.2 80.96Z" fill="#606060"/>
<path d="M249.682 63.2C244.682 70.92 243.282 80.52 245.842 89.36C246.042 90.12 247.202 89.8 247.002 89.04C244.522 80.48 245.882 71.28 250.722 63.8C251.162 63.12 250.122 62.52 249.682 63.2Z" fill="#161616"/>
<path d="M250.72 64.36C273.24 70.04 295.72 75.72 318.24 81.36C319 81.56 319.32 80.4 318.56 80.2C296.04 74.52 273.56 68.84 251.04 63.2C250.32 63 250 64.16 250.72 64.36Z" fill="#161616"/>
<path d="M246.681 90.68C270.161 90.48 293.641 91.04 317.081 92.32C317.841 92.36 317.841 91.16 317.081 91.12C293.641 89.84 270.161 89.28 246.681 89.48C245.921 89.48 245.921 90.68 246.681 90.68Z" fill="#161616"/>
<path d="M317.881 80.92C319.481 84.48 319.121 88.52 316.921 91.76C316.481 92.4 317.521 93 317.961 92.36C320.401 88.76 320.721 84.28 318.921 80.32C318.601 79.64 317.561 80.24 317.881 80.92Z" fill="#161616"/>
<path d="M319.081 82.48C319.521 82.8 319.842 82.68 320.362 82.8C321.362 83.08 321.762 84 321.962 84.96C322.282 86.72 321.841 90.44 319.241 89.4C318.521 89.12 318.201 90.28 318.921 90.56C321.562 91.6 323.282 88.84 323.282 86.52C323.282 85.24 323.122 83.8 322.402 82.72C322.162 82.36 321.841 82 321.441 81.8C320.921 81.56 320.202 81.72 319.761 81.4C319.041 81 318.441 82.04 319.081 82.48Z" fill="#161616"/>
<path d="M322.601 84.68C324.641 84.56 326.681 84.6 328.681 84.88C329.441 84.96 329.441 83.76 328.681 83.68C326.641 83.44 324.641 83.36 322.601 83.48C321.841 83.56 321.841 84.76 322.601 84.68Z" fill="#161616"/>
<path d="M322.44 89.08C324.08 89.36 325.72 89.48 327.361 89.32C328.121 89.24 328.121 88.04 327.361 88.12C325.8 88.24 324.28 88.2 322.76 87.92C322 87.8 321.68 88.92 322.44 89.08Z" fill="#161616"/>
<path d="M249.001 65.12C245.121 62.88 244.041 69.88 243.521 72.08C242.321 77.16 241.761 82.4 243.241 87.48C243.321 87.72 243.561 87.92 243.801 87.92C244.321 87.92 244.881 87.92 245.401 87.92C246.161 87.92 246.161 86.72 245.401 86.72C244.881 86.72 244.321 86.72 243.801 86.72C244.001 86.88 244.201 87 244.361 87.16C243.321 83.48 243.321 79.76 243.921 76C244.201 74.32 244.561 72.64 245.001 71C245.281 69.92 246.161 64.84 248.361 66.16C249.081 66.56 249.681 65.52 249.001 65.12Z" fill="#161616"/>
<path d="M292.241 73.72C291.521 72.84 290.321 72.96 290.161 72.96C288.841 73.04 287.561 74.24 286.161 77.16C283.441 82.72 283.321 88.28 283.321 89.16C283.281 93 283.641 99.24 286.361 106.68C286.601 109.8 287.121 114.16 288.281 119.24C290.321 128.36 292.481 137.96 299.921 146.48C302.721 149.72 308.241 156 317.841 158.28C327.881 160.68 336.041 157.12 338.041 156.2C339.801 155.36 344.721 152.88 348.881 147.64C351.401 144.48 354.321 141.04 353.841 136.8C353.641 134.96 352.841 133.4 351.641 130.92C350.441 128.44 349.801 127.2 348.521 126.72C346.761 126.04 344.881 127.24 342.801 128.44C339.281 130.44 338.961 132.36 335.161 134.36C334.161 134.88 333.161 135.24 331.161 135.88C328.001 136.92 324.881 137.96 322.001 138.16C315.721 138.6 310.681 135 309.241 133.96C303.921 130.16 301.841 125.08 300.481 121.76C297.441 114.32 297.681 107.48 298.201 103.48C300.081 103.16 301.241 102.4 301.801 101.96C303.921 100.32 304.441 98.04 305.241 94.52C305.761 92.32 306.001 91.16 305.441 90.72C304.281 89.84 300.721 92.72 299.921 93.4C300.081 90.68 300.481 88.48 300.881 86.92C301.401 84.84 301.681 83.76 302.401 82.92C303.801 81.28 305.441 81.44 306.001 79.88C306.321 79.04 306.281 77.88 305.601 77.2C304.801 76.4 303.081 76.44 301.601 77.6C301.121 76.56 300.161 75.92 299.121 75.88C298.081 75.84 297.401 76.48 297.201 76.64C297.321 75.56 296.841 74.56 296.041 74.16C294.961 73.6 293.241 74.24 292.601 75.88C292.641 75.68 292.921 74.56 292.241 73.72Z" fill="white"/>
<path opacity="0.12" d="M290.16 72.96C289.2 74.64 288 77.12 287.2 80.36C285.44 87.4 286.88 93.28 287.52 96.12C294.4 125.44 291.4 126.16 296.2 133.04C297.96 135.52 310.04 152.16 328.04 149.96C343.12 148.12 351.12 134.4 352.16 132.56C352.76 134.16 353.48 136.88 353 140.12C352.28 144.88 349.32 147.88 348.24 149C347.2 150.04 345.92 150.96 343.32 152.76C341 154.4 338.72 155.84 337.72 156.36C332.96 159.04 325.6 159.68 320.48 159C306.56 157.16 298.2 143.96 294.72 138.48C286.76 125.96 285.96 113.28 286.04 106.96C285.28 104.4 284.52 101.8 283.76 99.24C283.24 95.28 283.2 92 283.28 89.72C283.48 84 283.64 79.72 286.56 76.08C287.84 74.48 289.24 73.52 290.16 72.96Z" fill="#606060"/>
<path d="M344.321 152.16C350.641 149.16 354.881 142.88 353.841 135.76C353.241 131.44 349.761 124 344.201 126.64C341.721 127.84 339.681 130.04 337.401 131.6C334.241 133.76 330.601 135.44 326.961 136.6C322.321 138.08 317.161 138.4 312.681 136.16C309.401 134.52 306.841 131.84 304.881 128.8C300.561 122.12 298.321 114.24 298.841 106.28C298.881 105.52 297.681 105.52 297.641 106.28C297.201 113 298.681 119.4 301.641 125.4C304.241 130.76 308.041 135.8 313.801 137.96C320.801 140.56 328.441 137.92 334.761 134.6C337.601 133.08 340.041 131.12 342.601 129.16C344.921 127.36 347.241 126.48 349.601 128.88C352.521 131.84 353.401 137 352.521 140.92C351.441 145.6 347.961 149.12 343.721 151.12C343.041 151.44 343.641 152.48 344.321 152.16Z" fill="#161616"/>
<path d="M298.76 106.8C298.24 104.6 299.8 104.04 301.24 103C302.08 102.4 302.72 101.56 303.32 100.72C304.84 98.52 306.04 95.96 306.36 93.28C306.52 91.96 306.8 89.88 305 89.8C302.88 89.72 302 92.4 300 92.6C299.24 92.68 299.24 93.88 300 93.8C301.52 93.64 302.28 92.68 303.44 91.8C304.12 91.28 304.88 90.68 305.24 91.84C305.44 92.48 305.12 93.68 304.96 94.32C304.68 95.68 304.08 97 303.44 98.24C302.84 99.36 302.16 100.52 301.24 101.44C300.4 102.32 299.24 102.52 298.32 103.24C297.08 104.2 297.28 105.84 297.6 107.16C297.8 107.88 298.96 107.56 298.76 106.8Z" fill="#161616"/>
<path d="M284.8 100.48C284 95.32 283.92 90.04 284.72 84.88C285.04 82.8 285.44 80.68 286.16 78.68C286.6 77.44 287.2 76 288.08 75C289.28 73.68 291.64 73 292.28 75.24C292.48 76 293.64 75.68 293.44 74.92C292.88 73 291.04 71.96 289.12 72.72C286.68 73.72 285.52 76.72 284.76 79C282.52 85.92 282.52 93.68 283.6 100.8C283.76 101.56 284.92 101.24 284.8 100.48Z" fill="#161616"/>
<path d="M290.6 79.84C291.56 77.48 294.28 72.72 297.24 75.96C297.76 76.52 298.6 75.68 298.08 75.12C296.72 73.64 294.76 73.4 293.04 74.4C291.12 75.48 290.24 77.6 289.44 79.56C289.16 80.24 290.32 80.56 290.6 79.84Z" fill="#161616"/>
<path d="M295.64 80.84C295.68 79.32 296.28 77.64 297.76 76.92C299 76.32 300.48 76.6 301.32 77.68C301.8 78.28 302.64 77.44 302.16 76.84C301 75.4 298.92 75.04 297.28 75.8C295.36 76.72 294.48 78.8 294.44 80.84C294.4 81.6 295.6 81.6 295.64 80.84Z" fill="#161616"/>
<path d="M299.121 81.24C299.841 78.56 302.841 76.12 305.441 78.28C306.041 78.76 306.881 77.92 306.281 77.44C302.961 74.72 298.961 77.28 297.961 80.92C297.761 81.68 298.921 82 299.121 81.24Z" fill="#161616"/>
<path d="M305.2 78.08C306.48 79.88 303.64 81 302.64 81.84C301.8 82.52 301.32 83.4 300.96 84.4C300 87.16 299.56 90.16 299.32 93.04C299.24 93.8 300.44 93.8 300.52 93.04C300.72 90.92 301.04 88.8 301.56 86.72C301.72 86.04 301.88 85.36 302.12 84.68C302.64 83.28 303.4 82.76 304.56 81.92C306 80.88 307.52 79.2 306.24 77.4C305.8 76.84 304.76 77.44 305.2 78.08Z" fill="#161616"/>
<path d="M283.32 99.28C283.96 102 284.76 104.68 285.76 107.32C286.04 108.04 287.2 107.72 286.92 107C285.92 104.36 285.12 101.68 284.48 98.96C284.32 98.2 283.16 98.52 283.32 99.28Z" fill="#161616"/>
<path d="M285.56 108.08C287.08 121.84 290.48 135.96 299.72 146.68C307.08 155.2 318.76 161.68 330.28 159.56C335.72 158.56 340.68 155.84 344.64 152.04C345.2 151.52 344.36 150.64 343.8 151.2C335.88 158.8 324.6 160.8 314.56 156.28C303.76 151.36 296.2 142.12 291.92 131.2C289.04 123.8 287.6 115.96 286.72 108.12C286.68 107.32 285.48 107.32 285.56 108.08Z" fill="#161616"/>
</svg>
